WA000003.CSV

Record Length,9216,,Source,CH1,CH2
Sample Interval,0.0032552081250,,Second,Volt,Volt
Vertical Units,CH1:V CH2:V,,-23.04000000000,-0.01600,-0.01400
Vertical Scale,CH1:0.05 CH2:0.05,,-23.03500000000,-0.01000,-0.01000
Vertical Offset,CH1:0.00 CH2:0.00,,-23.03000000000,-0.00600,-0.00400
Horizontal Units,s,,-23.02500000000,0.00400,0.00400
Horizontal Scale,2.5000000000,,-23.02000000000,0.00800,0.00400
Model Number,WaveAce232,,-23.01500000000,0.01600,0.01000
Serial Number,LCRY2106C00077,,-23.01000000000,0.02400,0.02000
Software Version,2.06.02.11,,-23.00500000000,0.01800,0.01400
,,,-23.00000000000,0.02200,0.01800
,,,-22.99500000000,0.01200,0.01000
,,,-22.99000000000,0.00600,0.00600
,,,-22.98499750000,0.00600,0.00400
,,,-22.98000000000,-0.00200,-0.00200
,,,-22.97500000000,-0.01200,-0.01000
,,,-22.97000000000,-0.01600,-0.01400
,,,-22.96500000000,-0.02000,-0.01600
,,,-22.96000000000,-0.03000,-0.02600
,,,-22.95500000000,-0.02600,-0.02200
,,,-22.95000000000,-0.02200,-0.01800
,,,-22.94500000000,-0.02000,-0.01800
,,,-22.94000000000,-0.02600,-0.02000
,,,-22.93500000000,-0.01200,-0.01000
,,,-22.93000000000,-0.00600,-0.00600
,,,-22.92500000000,0.00800,0.00600
,,,-22.92000000000,0.00800,0.00600
,,,-22.91500000000,0.01600,0.01200
,,,-22.91000000000,0.03000,0.02600
,,,-22.90500000000,0.02000,0.01800
,,,-22.90000000000,0.02200,0.02000
,,,-22.89500000000,0.01400,0.01200
,,,-22.89000250000,0.01400,0.01000
,,,-22.88500000000,0.00400,0.00200
,,,-22.88000000000,-0.00400,-0.00200
,,,-22.87500250000,-0.00200,-0.00200
,,,-22.87000000000,-0.01600,-0.01200
,,,-22.86500250000,-0.02000,-0.01600
,,,-22.86000000000,-0.02000,-0.01800
,,,-22.85500250000,-0.02400,-0.02000
,,,-22.85000000000,-0.02800,-0.02400
,,,-22.84500000000,-0.02000,-0.01800
,,,-22.84000250000,-0.01400,-0.01000
,,,-22.83500000000,-0.01400,-0.01200
,,,-22.83000250000,-0.00600,-0.00600
,,,-22.82500000000,0.00800,0.00800
,,,-22.82000250000,0.01200,0.00800
,,,-22.81500000000,0.01600,0.01200
,,,-22.81000250000,0.02400,0.02000
,,,-22.80500000000,0.02400,0.01800
,,,-22.80000000000,0.02600,0.02400
,,,-22.79500000000,0.01800,0.01600
,,,-22.79000000000,0.01400,0.01000
,,,-22.78500000000,0.00800,0.00400
,,,-22.78000000000,-0.00200,-0.00200
,,,-22.77500250000,-0.00800,-0.00600
,,,-22.77000000000,-0.02000,-0.01200
,,,-22.76500250000,-0.02000,-0.01600
,,,-22.76000000000,-0.03800,-0.03200
,,,-22.75500000000,-0.02800,-0.02200
,,,-22.75000000000,-0.02400,-0.02200
,,,-22.74500000000,-0.01800,-0.01600
,,,-22.74000250000,-0.01200,-0.01000
,,,-22.73500000000,-0.01200,-0.01000
,,,-22.73000250000,-0.00200,-0.00200
,,,-22.72500000000,0.00400,0.00200
,,,-22.72000000000,0.01000,0.00800
,,,-22.71500000000,0.01400,0.01000
,,,-22.71000000000,0.03000,0.02600
,,,-22.70500000000,0.02600,0.01800
,,,-22.70000000000,0.02600,0.02200
,,,-22.69500000000,0.01800,0.01600
,,,-22.69000000000,0.00800,0.00600
,,,-22.68500000000,0.00600,0.00600
,,,-22.68000000000,0.00800,0.00800
,,,-22.67500000000,-0.00800,-0.00600
,,,-22.67000000000,-0.01000,-0.00800
,,,-22.66500000000,-0.02400,-0.02000
,,,-22.66000000000,-0.01800,-0.01600
,,,-22.65500000000,-0.02200,-0.02000
,,,-22.65000000000,-0.02600,-0.02000
,,,-22.64500000000,-0.01800,-0.01800
,,,-22.64000250000,-0.01200,-0.01000
,,,-22.63500000000,-0.00800,-0.00800
,,,-22.63000000000,-0.00600,-0.00400
,,,-22.62500000000,-0.00200,0.00
,,,-22.62000000000,-0.00200,-0.00200
,,,-22.61500000000,0.01400,0.01200
,,,-22.61000000000,0.02800,0.02600
,,,-22.60500000000,0.02600,0.02000
,,,-22.60000000000,0.01800,0.01400
,,,-22.59500000000,0.01400,0.01200
,,,-22.59000000000,0.01400,0.01400
,,,-22.58500000000,0.00600,0.00400
,,,-22.58000000000,-0.00400,-0.00400
,,,-22.57500000000,-0.00600,-0.00400
,,,-22.57000000000,-0.01600,-0.01200
,,,-22.56500000000,-0.01800,-0.01400
,,,-22.56000000000,-0.01800,-0.01400
,,,-22.55500000000,-0.01800,-0.01400
,,,-22.55000000000,-0.01800,-0.01400
,,,-22.54500000000,-0.01800,-0.01400
,,,-22.54000000000,0.01200,0.01000
,,,-22.53500000000,0.01200,0.00800
,,,-22.53000000000,0.02400,0.02000
,,,-22.52500000000,0.02400,0.02000
,,,-22.52000000000,0.02200,0.01800
,,,-22.51500000000,0.03000,0.02600
,,,-22.51000000000,0.00600,0.00400
,,,-22.50500000000,0.00,0.00
,,,-22.50000000000,0.00400,0.00400
,,,-22.49500000000,-0.00600,-0.00600
,,,-22.49000000000,-0.01200,-0.00800
,,,-22.48499750000,-0.01600,-0.01200
,,,-22.48000000000,-0.02400,-0.02000
,,,-22.47500000000,-0.02200,-0.02000
,,,-22.47000000000,-0.02000,-0.01600
,,,-22.46500000000,-0.02400,-0.01800
,,,-22.46000000000,-0.01600,-0.01600
,,,-22.45500000000,-0.00600,-0.00800
,,,-22.45000000000,-0.00600,-0.00400
,,,-22.44500000000,-0.00400,-0.00400
,,,-22.44000000000,0.01000,0.01000
,,,-22.43500000000,0.01800,0.01400
,,,-22.43000000000,0.02000,0.01600
,,,-22.42500000000,0.02000,0.01600
,,,-22.42000000000,0.02200,0.01800
,,,-22.41500000000,0.01800,0.01600
,,,-22.41000000000,0.01400,0.01200
,,,-22.40500000000,0.01000,0.00600
,,,-22.40000000000,0.00800,0.00600
,,,-22.39500000000,-0.00800,-0.00600
,,,-22.39000250000,-0.01200,-0.01000
,,,-22.38500000000,-0.02000,-0.01800
,,,-22.38000000000,-0.02400,-0.01800
,,,-22.37500250000,-0.01800,-0.01800
,,,-22.37000000000,-0.02000,-0.01400
,,,-22.36500250000,-0.02000,-0.01800
,,,-22.36000000000,-0.01000,-0.00800
,,,-22.35500250000,-0.01000,-0.01000
,,,-22.35000000000,-0.00200,-0.00200
,,,-22.34500000000,0.00200,0.00200
,,,-22.34000250000,0.00800,0.00600
,,,-22.33500000000,0.01200,0.01000
,,,-22.33000250000,0.01200,0.01200
,,,-22.32500000000,0.02200,0.02000
,,,-22.32000250000,0.02600,0.02000
,,,-22.31500000000,0.01800,0.01400
,,,-22.31000250000,0.01200,0.00800
,,,-22.30500000000,0.00400,0.00200
,,,-22.30000000000,0.00,-0.00200
,,,-22.29500000000,-0.01200,-0.01000
,,,-22.29000000000,-0.00600,-0.00400
,,,-22.28500000000,-0.02200,-0.01800
,,,-22.28000000000,-0.03000,-0.02400
,,,-22.27500250000,-0.03400,-0.02600
,,,-22.27000000000,-0.02600,-0.02200
,,,-22.26500250000,-0.02000,-0.01800
,,,-22.26000000000,-0.01200,-0.01000
,,,-22.25500000000,-0.00600,-0.00400
,,,-22.25000000000,-0.00200,-0.00200
,,,-22.24500000000,0.00600,0.00400
,,,-22.24000250000,0.01800,0.01400
,,,-22.23500000000,0.01200,0.01000
,,,-22.23000250000,0.02400,0.01800
,,,-22.22500000000,0.02200,0.01800
,,,-22.22000000000,0.02000,0.01600
,,,-22.21500000000,0.01600,0.01400
,,,-22.21000000000,0.01200,0.01000
,,,-22.20500000000,0.00,0.00200
,,,-22.20000000000,0.00,-0.00200
,,,-22.19500000000,-0.01200,-0.01000
,,,-22.19000000000,-0.01600,-0.01400
,,,-22.18500000000,-0.02000,-0.01600
,,,-22.18000000000,-0.03000,-0.02200
,,,-22.17500000000,-0.02600,-0.02000
,,,-22.17000000000,-0.02200,-0.01800
,,,-22.16500000000,-0.01600,-0.01400
,,,-22.16000000000,-0.02000,-0.01600
,,,-22.15500000000,-0.00800,-0.00800
,,,-22.15000000000,-0.00600,-0.00400
,,,-22.14500000000,0.00400,0.00200
,,,-22.14000250000,0.00600,0.00400
,,,-22.13500000000,0.01400,0.01000
,,,-22.13000000000,0.02000,0.01600
,,,-22.12500000000,0.01800,0.01600
,,,-22.12000000000,0.02200,0.01800
,,,-22.11500000000,0.01400,0.01000
,,,-22.11000000000,0.01400,0.01200
,,,-22.10500000000,0.01000,0.01000
,,,-22.10000000000,-0.00200,-0.00200
,,,-22.09500000000,0.00400,0.00200
,,,-22.09000000000,-0.01000,-0.00800
,,,-22.08500000000,-0.01600,-0.01200
,,,-22.08000000000,-0.02000,-0.01800
,,,-22.07500000000,-0.02200,-0.02000
,,,-22.07000000000,-0.02200,-0.01800
,,,-22.06500000000,-0.01400,-0.01400
,,,-22.06000000000,-0.01400,-0.01400
,,,-22.05500000000,-0.01400,-0.01400
,,,-22.05000000000,-0.01400,-0.01400
,,,-22.04500000000,-0.01400,-0.01400
,,,-22.04000000000,0.02000,0.01600
,,,-22.03500000000,0.01400,0.01400
,,,-22.03000000000,0.02600,0.01800
,,,-22.02500000000,0.01400,0.01200
,,,-22.02000000000,0.00,-0.00200
,,,-22.01500000000,-0.01400,-0.01200
,,,-22.01000000000,-0.01600,-0.01400
,,,-22.00500000000,-0.00800,-0.00600
,,,-22.00000000000,-0.02200,-0.01800
,,,-21.99500000000,-0.02600,-0.02200
,,,-21.99000000000,-0.02600,-0.02200
,,,-21.98499750000,-0.01800,-0.01800
,,,-21.98000000000,-0.01400,-0.01200
,,,-21.97500000000,-0.00400,-0.00200
,,,-21.97000000000,0.00,0.00200
,,,-21.96500000000,0.00,0.00
,,,-21.96000000000,0.01400,0.01400
,,,-21.95500000000,0.01200,0.01000
,,,-21.95000000000,0.02400,0.01800
,,,-21.94500000000,0.02600,0.02000
,,,-21.94000000000,0.02000,0.01800
,,,-21.93500000000,0.01200,0.01200
,,,-21.93000000000,0.01000,0.00800
,,,-21.92500000000,0.00600,0.00200
,,,-21.92000000000,-0.00200,0.00200
,,,-21.91500000000,-0.00600,-0.00400
,,,-21.91000000000,-0.02000,-0.01400
,,,-21.90500000000,-0.01800,-0.01400
,,,-21.90000000000,-0.02600,-0.02200
,,,-21.89500000000,-0.03000,-0.02600
,,,-21.89000250000,-0.02400,-0.02000
,,,-21.88500000000,-0.02000,-0.01800
,,,-21.88000000000,-0.01800,-0.01600
,,,-21.87500250000,-0.01000,-0.01000
,,,-21.87000000000,-0.00400,-0.00400
,,,-21.86500250000,-0.00400,-0.00200
,,,-21.86000000000,0.00800,0.00600
,,,-21.85500250000,0.01400,0.01200
,,,-21.85000000000,0.02600,0.02200
,,,-21.84500000000,0.00800,0.00600
,,,-21.84000250000,0.02000,0.01600
,,,-21.83500000000,0.01000,0.00800
,,,-21.83000250000,0.01800,0.01400
,,,-21.82500000000,0.01000,0.01000
,,,-21.82000250000,-0.00200,-0.00200
,,,-21.81500000000,-0.00800,-0.00800
,,,-21.81000250000,-0.01200,-0.01000
,,,-21.80500000000,-0.02000,-0.01800
,,,-21.80000000000,-0.02400,-0.02000
,,,-21.79500000000,-0.02200,-0.01800
,,,-21.79000000000,-0.02200,-0.01800
,,,-21.78500000000,-0.02000,-0.01800
,,,-21.78000000000,-0.01800,-0.01600
,,,-21.77500250000,-0.01000,-0.00800
,,,-21.77000000000,-0.00200,-0.00200
,,,-21.76500250000,0.00600,0.00600
,,,-21.76000000000,0.01400,0.01000
,,,-21.75500000000,0.01600,0.01600
,,,-21.75000000000,0.01600,0.01200
,,,-21.74500000000,0.02400,0.02000
,,,-21.74000250000,0.01600,0.01600
,,,-21.73500000000,0.01400,0.01000
,,,-21.73000250000,0.02800,0.02200
,,,-21.72500000000,0.00600,0.00400
,,,-21.72000000000,-0.00200,-0.00200
,,,-21.71500000000,-0.01400,-0.01000
,,,-21.71000000000,-0.01800,-0.01600
,,,-21.70500000000,-0.01200,-0.01000
,,,-21.70000000000,-0.02200,-0.01800
,,,-21.69500000000,-0.02400,-0.02000
,,,-21.69000000000,-0.02600,-0.02000
,,,-21.68500000000,-0.01600,-0.01400
,,,-21.68000000000,-0.01400,-0.01200
,,,-21.67500000000,-0.01200,-0.00800
,,,-21.67000000000,-0.00200,-0.00200
,,,-21.66500000000,0.00400,0.00200
,,,-21.66000000000,0.01000,0.00800
,,,-21.65500000000,0.01600,0.01200
,,,-21.65000000000,0.02000,0.01800
,,,-21.64500000000,0.01600,0.01400
,,,-21.64000250000,0.02200,0.02000
,,,-21.63500000000,0.01000,0.00800
,,,-21.63000000000,0.01000,0.01000
,,,-21.62500000000,0.00800,0.00600
,,,-21.62000000000,-0.00200,-0.00200
,,,-21.61500000000,-0.01000,-0.00800
,,,-21.61000000000,-0.01400,-0.01200
,,,-21.60500000000,-0.01200,-0.01000
,,,-21.60000000000,-0.02600,-0.02200
,,,-21.59500000000,-0.03000,-0.02600
,,,-21.59000000000,-0.02600,-0.02200
,,,-21.58500000000,-0.01600,-0.01200
,,,-21.58000000000,-0.00400,-0.00400
,,,-21.57500000000,-0.01000,-0.00800
,,,-21.57000000000,0.00800,0.00800
,,,-21.56500000000,0.00,0.00
,,,-21.56000000000,0.00,0.00
,,,-21.55500000000,0.00,0.00
,,,-21.55000000000,0.00,0.00
,,,-21.54500000000,0.00,0.00
,,,-21.54000000000,0.00,0.00
,,,-21.53500000000,-0.00800,-0.01000
,,,-21.53000000000,-0.01600,-0.01200
,,,-21.52500000000,-0.02000,-0.01800
,,,-21.52000000000,-0.02800,-0.02200
,,,-21.51500000000,-0.02400,-0.01800
,,,-21.51000000000,-0.02600,-0.02200
,,,-21.50500000000,-0.02200,-0.01800
,,,-21.50000000000,-0.01000,-0.00800
,,,-21.49500000000,-0.00800,-0.00800
,,,-21.49000000000,-0.01200,-0.00800
,,,-21.48499750000,0.00400,0.00400
,,,-21.48000000000,0.01000,0.00800
,,,-21.47500000000,0.02200,0.01800
,,,-21.47000000000,0.02000,0.01600
,,,-21.46500000000,0.02800,0.02400
,,,-21.46000000000,0.02000,0.01800
,,,-21.45500000000,0.00600,0.00600
,,,-21.45000000000,0.01400,0.01000
,,,-21.44500000000,0.00800,0.00800
,,,-21.44000000000,-0.00400,-0.00400
,,,-21.43500000000,-0.00800,-0.00600
,,,-21.43000000000,-0.01400,-0.01000
,,,-21.42500000000,-0.01800,-0.01200
,,,-21.42000000000,-0.02600,-0.01800
,,,-21.41500000000,-0.02400,-0.01800
,,,-21.41000000000,-0.01600,-0.01600
,,,-21.40500000000,-0.02400,-0.01800
,,,-21.40000000000,-0.01600,-0.01400
,,,-21.39500000000,-0.00800,-0.00600
,,,-21.39000250000,-0.00400,-0.00400
,,,-21.38500000000,0.00,-0.00200
,,,-21.38000000000,0.01000,0.00800
,,,-21.37500250000,0.00800,0.00400
,,,-21.37000000000,0.02600,0.01800
,,,-21.36500250000,0.02200,0.01800
,,,-21.36000000000,0.02000,0.01800
,,,-21.35500250000,0.01800,0.01600
,,,-21.35000000000,0.01200,0.01000
,,,-21.34500000000,0.00,0.00
,,,-21.34000250000,0.00200,0.00200
,,,-21.33500000000,-0.01200,-0.01000
,,,-21.33000250000,-0.00400,-0.00200
,,,-21.32500000000,-0.01800,-0.01600
,,,-21.32000250000,-0.02400,-0.02200
,,,-21.31500000000,-0.02600,-0.02000
,,,-21.31000250000,-0.01800,-0.01600
,,,-21.30500000000,-0.01400,-0.01000
,,,-21.30000000000,-0.01400,-0.01200
,,,-21.29500000000,-0.01600,-0.01200
,,,-21.29000000000,-0.00200,-0.00200
,,,-21.28500000000,0.00600,0.00400
,,,-21.28000000000,0.00400,0.00400
,,,-21.27500250000,0.02000,0.01600
,,,-21.27000000000,0.01800,0.01400
,,,-21.26500250000,0.02400,0.02000
,,,-21.26000000000,0.02600,0.02000
,,,-21.25500000000,0.01800,0.01600
,,,-21.25000000000,0.01000,0.01000
,,,-21.24500000000,0.00800,0.00600
,,,-21.24000250000,0.00200,0.00400
,,,-21.23500000000,-0.00800,-0.00800
,,,-21.23000250000,-0.01400,-0.01200
,,,-21.22500000000,-0.02400,-0.01800
,,,-21.22000000000,-0.01400,-0.01000
,,,-21.21500000000,-0.02400,-0.02000
,,,-21.21000000000,-0.02000,-0.01600
,,,-21.20500000000,-0.03000,-0.02400
,,,-21.20000000000,-0.01800,-0.01600
,,,-21.19500000000,-0.01000,-0.01000
,,,-21.19000000000,-0.00600,-0.00600
,,,-21.18500000000,0.00800,0.00600
,,,-21.18000000000,0.01000,0.00800
,,,-21.17500000000,0.00800,0.00600
,,,-21.17000000000,0.01800,0.01600
,,,-21.16500000000,0.02400,0.02200
,,,-21.16000000000,0.02200,0.02000
,,,-21.15500000000,0.01600,0.01400
,,,-21.15000000000,0.01000,0.01000
,,,-21.14500000000,0.00400,0.00400
,,,-21.14000250000,-0.00200,0.00
,,,-21.13500000000,-0.00600,-0.00600
,,,-21.13000000000,-0.00800,-0.00800
,,,-21.12500000000,-0.02200,-0.01800
,,,-21.12000000000,-0.03200,-0.02600
,,,-21.11500000000,-0.03200,-0.02400
,,,-21.11000000000,-0.02200,-0.02000
,,,-21.10500000000,-0.02000,-0.01600
,,,-21.10000000000,-0.01400,-0.01200
,,,-21.09500000000,-0.01000,-0.00800
,,,-21.09000000000,-0.01000,-0.00800
,,,-21.08500000000,0.00400,0.00400
,,,-21.08000000000,0.00600,0.00400
,,,-21.07500000000,0.01400,0.01200
,,,-21.07000000000,0.01800,0.01400
,,,-21.06500000000,0.02600,0.02200
,,,-21.06000000000,0.02600,0.02200
,,,-21.05500000000,0.02600,0.02200
,,,-21.05000000000,0.02600,0.02200
,,,-21.04500000000,0.02600,0.02200
,,,-21.04000000000,0.00400,0.00200
,,,-21.03500000000,-0.00800,-0.00600
,,,-21.03000000000,-0.02000,-0.01800
,,,-21.02500000000,-0.01800,-0.01600
,,,-21.02000000000,-0.02600,-0.02200
,,,-21.01500000000,-0.02600,-0.02200
,,,-21.01000000000,-0.02600,-0.02000
,,,-21.00500000000,-0.01200,-0.01000
,,,-21.00000000000,-0.02000,-0.01600
,,,-20.99500000000,-0.01000,-0.00800
,,,-20.99000000000,-0.00800,-0.00800
,,,-20.98499750000,0.01400,0.01000
,,,-20.98000000000,0.01200,0.00800
,,,-20.97500000000,0.01600,0.01400
,,,-20.96999875000,0.02200,0.01800
,,,-20.96500000000,0.02000,0.01600
,,,-20.95999875000,0.02200,0.01800
,,,-20.95500000000,0.00800,0.00600
,,,-20.94999875000,0.01000,0.00800
,,,-20.94500000000,0.00400,0.00400
,,,-20.94000000000,-0.00200,-0.00200
,,,-20.93500000000,-0.01600,-0.01400
,,,-20.93000000000,-0.01800,-0.01600
,,,-20.92499875000,-0.02200,-0.01800
,,,-20.92000000000,-0.01800,-0.01400
,,,-20.91499875000,-0.02400,-0.02000
,,,-20.91000000000,-0.02200,-0.02000
,,,-20.90499875000,-0.02000,-0.01600
,,,-20.90000000000,-0.01200,-0.01000
,,,-20.89500000000,-0.00600,-0.00400
,,,-20.89000125000,-0.00200,-0.00200
,,,-20.88500000000,0.00,-0.00200
,,,-20.88000125000,0.00600,0.00200
,,,-20.87500250000,0.00800,0.00800
,,,-20.87000125000,0.02600,0.02200
,,,-20.86500125000,0.02000,0.01800
,,,-20.86000000000,0.01400,0.01200
,,,-20.85500125000,0.01400,0.01200
,,,-20.85000000000,0.01000,0.01000
,,,-20.84500125000,0.00600,0.00600
,,,-20.84000250000,0.00,0.00
,,,-20.83500125000,-0.00800,-0.00400
,,,-20.83000125000,-0.01800,-0.01400
,,,-20.82500125000,-0.02200,-0.01800
,,,-20.82000125000,-0.03000,-0.02600
,,,-20.81500000000,-0.02800,-0.02400
,,,-20.81000125000,-0.02800,-0.02400
,,,-20.80500000000,-0.01400,-0.01000
,,,-20.80000125000,-0.01400,-0.01200
,,,-20.79500000000,-0.01000,-0.00800
,,,-20.79000125000,0.00400,0.00400
,,,-20.78500000000,0.00,-0.00200
,,,-20.78000125000,0.01600,0.01400
,,,-20.77500125000,0.02000,0.01800
,,,-20.77000000000,0.02200,0.01800
,,,-20.76500125000,0.01200,0.01200
,,,-20.76000000000,0.02200,0.01800
,,,-20.75500125000,0.01800,0.01400
,,,-20.75000000000,0.01000,0.01000
,,,-20.74500125000,0.00200,0.00200
,,,-20.74000125000,-0.00200,-0.00200
,,,-20.73500000000,-0.01400,-0.01000
,,,-20.73000125000,-0.01600,-0.01400
,,,-20.72500000000,-0.01800,-0.01400
,,,-20.72000125000,-0.02200,-0.02000
,,,-20.71500000000,-0.02600,-0.02000
,,,-20.71000125000,-0.02400,-0.02000
,,,-20.70500000000,-0.02000,-0.01800
,,,-20.70000125000,-0.01600,-0.01200
,,,-20.69500000000,-0.01200,-0.01000
,,,-20.69000000000,-0.00200,-0.00200
,,,-20.68500000000,0.00400,0.00200
,,,-20.68000000000,0.00400,0.00200
,,,-20.67500125000,0.01800,0.01400
,,,-20.67000000000,0.01800,0.01600
,,,-20.66500125000,0.02200,0.01800
,,,-20.66000000000,0.02000,0.01600
,,,-20.65500125000,0.01400,0.01200
,,,-20.65000000000,0.01400,0.01200
,,,-20.64500000000,0.00400,0.00200
,,,-20.64000125000,-0.00200,0.00
,,,-20.63500000000,-0.00600,-0.00400
,,,-20.63000125000,-0.01600,-0.01400
,,,-20.62500000000,-0.00800,-0.00800
,,,-20.62000125000,-0.03000,-0.02600
,,,-20.61500000000,-0.02600,-0.02200
,,,-20.61000000000,-0.02200,-0.01800
,,,-20.60500000000,-0.01800,-0.01400
,,,-20.60000000000,-0.02200,-0.01800
,,,-20.59499875000,-0.01000,-0.00800
,,,-20.59000000000,-0.00200,-0.00200
,,,-20.58499875000,0.00400,0.00200
,,,-20.58000000000,0.01800,0.01400
,,,-20.57500125000,0.02000,0.01600
,,,-20.57000000000,0.02200,0.01800
,,,-20.56500000000,0.02200,0.01600
,,,-20.56000000000,0.02200,0.01600
,,,-20.55500000000,0.02200,0.01600
,,,-20.54999875000,0.02200,0.01600
,,,-20.54500000000,0.02200,0.01600
,,,-20.54000125000,-0.02400,-0.02000
,,,-20.53500000000,-0.02400,-0.02000
,,,-20.53000125000,-0.02000,-0.01800
,,,-20.52500000000,-0.01000,-0.00800
,,,-20.52000000000,-0.01200,-0.01200
,,,-20.51500000000,-0.01000,-0.00600
,,,-20.51000000000,-0.00200,-0.00200
,,,-20.50499875000,0.00800,0.00400
,,,-20.50000000000,0.01400,0.01000
,,,-20.49499875000,0.01600,0.01400
,,,-20.49000000000,0.02200,0.02000
,,,-20.48499875000,0.02600,0.02000
,,,-20.48000000000,0.02200,0.01800
,,,-20.47500000000,0.01800,0.01400
,,,-20.46999875000,0.02000,0.01800
,,,-20.46500000000,0.00200,0.00200
,,,-20.45999875000,0.00400,0.00200
,,,-20.45500000000,-0.01200,-0.01000
,,,-20.44999875000,-0.01600,-0.01400
,,,-20.44500000000,-0.02000,-0.01600
,,,-20.44000000000,-0.02400,-0.02000
,,,-20.43500000000,-0.02000,-0.01800
,,,-20.43000000000,-0.02400,-0.02000
,,,-20.42499875000,-0.01800,-0.01800
,,,-20.42000000000,-0.01600,-0.01400
,,,-20.41499875000,-0.00600,-0.00800
,,,-20.41000000000,-0.01000,-0.00800
,,,-20.40499875000,0.00,0.00
,,,-20.40000000000,0.01000,0.01000
,,,-20.39500000000,0.01600,0.01400
,,,-20.39000125000,0.01800,0.01600
,,,-20.38500000000,0.02400,0.01800
,,,-20.38000125000,0.01800,0.01600
,,,-20.37500250000,0.01400,0.01200
,,,-20.37000125000,0.01200,0.01000
,,,-20.36500125000,0.00800,0.00600
,,,-20.36000000000,-0.00600,-0.00600
,,,-20.35500125000,-0.00200,-0.00400
,,,-20.35000000000,-0.01200,-0.00800
,,,-20.34500125000,-0.01600,-0.01400
,,,-20.34000250000,-0.02400,-0.02200
,,,-20.33500125000,-0.02600,-0.02200
,,,-20.33000125000,-0.02200,-0.01600
,,,-20.32500125000,-0.01600,-0.01000
,,,-20.32000125000,-0.01000,-0.01000
,,,-20.31500000000,-0.00800,-0.00800
,,,-20.31000125000,-0.00200,-0.00200
,,,-20.30500000000,0.00400,0.00200
,,,-20.30000125000,0.01000,0.00800
